…
``` r
county_pop<-county_pop %>%
  mutate(fips=as.character(GEOID))
```

Call the function above to rename your data. Now you’re ready to join
the data.

``` r
county_pop
```

    ## # A tibble: 159 x 6
    ##    GEOID NAME                     variable   estimate   moe fips 
    ##    <dbl> <chr>                    <chr>         <dbl> <dbl> <chr>
    ##  1 13001 Appling County, Georgia  B01001_001    18454    NA 13001
    ##  2 13003 Atkinson County, Georgia B01001_001     8265    NA 13003
    ##  3 13005 Bacon County, Georgia    B01001_001    11228    NA 13005
    ##  4 13007 Baker County, Georgia    B01001_001     3189    NA 13007
    ##  5 13009 Baldwin County, Georgia  B01001_001    45286    NA 13009
    ##  6 13011 Banks County, Georgia    B01001_001    18510    NA 13011
    ##  7 13013 Barrow County, Georgia   B01001_001    76887    NA 13013
    ##  8 13015 Bartow County, Georgia   B01001_001   103620    NA 13015
    ##  9 13017 Ben Hill County, Georgia B01001_001    17154    NA 13017
    ## 10 13019 Berrien County, Georgia  B01001_001    19025    NA 13019
    ## # … with 149 more rows
…
Using inner\_join, join the New York Times dataset to the county
population one.

``` r
joined_data<-inner_join(county_pop, nytimesdata)
```

    ## Joining, by = "fips"

``` r
county_pop
```

    ## # A tibble: 159 x 6
    ##    GEOID NAME                     variable   estimate   moe fips 
    ##    <dbl> <chr>                    <chr>         <dbl> <dbl> <chr>
    ##  1 13001 Appling County, Georgia  B01001_001    18454    NA 13001
    ##  2 13003 Atkinson County, Georgia B01001_001     8265    NA 13003
    ##  3 13005 Bacon County, Georgia    B01001_001    11228    NA 13005
    ##  4 13007 Baker County, Georgia    B01001_001     3189    NA 13007
    ##  5 13009 Baldwin County, Georgia  B01001_001    45286    NA 13009
    ##  6 13011 Banks County, Georgia    B01001_001    18510    NA 13011
    ##  7 13013 Barrow County, Georgia   B01001_001    76887    NA 13013
    ##  8 13015 Bartow County, Georgia   B01001_001   103620    NA 13015
    ##  9 13017 Ben Hill County, Georgia B01001_001    17154    NA 13017
    ## 10 13019 Berrien County, Georgia  B01001_001    19025    NA 13019
    ## # … with 149 more rows
…
